<?xml version="1.0" encoding="utf-8"?>
<!-- Generator: Adobe Illustrator 24.2.0, SVG Export Plug-In . SVG Version: 6.00 Build 0)  -->
<svg version="1.1" id="Layer_1" xmlns="http://www.w3.org/2000/svg" xmlns:xlink="http://www.w3.org/1999/xlink" x="0px" y="0px"
	 viewBox="0 0 100 100" style="enable-background:new 0 0 100 100;" xml:space="preserve">
<style type="text/css">
	.st0{fill:#AC7FFF;}
	.st1{fill:#FBA438;}
	.st2{fill:#341472;}
	.st3{fill:#FCA121;}
	.st4{fill:#380D75;}
	.st5{fill:#38F2AF;}
</style>
<g>
	<g>
		<path class="st3" d="M96.98,42.58l-8.01-2.91c-4-1.46-5.94-6.14-4.14-9.99l3.6-7.71c-2.91-3.99-6.43-7.5-10.41-10.41l-7.71,3.6
			c-3.86,1.8-8.54-0.14-9.99-4.14l-2.91-8.01c-4.94-0.77-9.89-0.75-14.72,0l-2.91,8.01c-1.46,4-6.13,5.94-9.99,4.14l-7.71-3.6
			c-3.99,2.91-7.5,6.43-10.41,10.41l3.6,7.71c1.8,3.86-0.14,8.54-4.14,9.99l-8.01,2.91c-0.78,5.02-0.74,9.97,0,14.72l8.01,2.91
			c4.04,1.47,5.96,6.09,4.14,9.99l-3.6,7.71c2.91,3.99,6.43,7.5,10.41,10.41l7.71-3.6c3.86-1.8,8.54,0.14,9.99,4.14l2.91,8.01
			c4.94,0.77,9.89,0.75,14.72,0l2.91-8.01c1.46-4,6.14-5.94,9.99-4.14l7.71,3.6c3.99-2.91,7.5-6.43,10.41-10.41l-3.6-7.71
			c-1.8-3.86,0.14-8.54,4.14-9.99l8.01-2.91C97.74,52.4,97.74,47.45,96.98,42.58z M50.05,76.51c-14.68,0-26.57-11.9-26.57-26.57
			c0-14.68,11.9-26.57,26.57-26.57c14.68,0,26.57,11.9,26.57,26.57C76.62,64.61,64.73,76.51,50.05,76.51z"/>
	</g>
	<g>
		<path class="st4" d="M50.01,100c-2.59,0-5.17-0.2-7.74-0.6c-0.9-0.14-1.65-0.76-1.96-1.62l-2.91-8.01
			c-0.45-1.25-1.44-2.27-2.7-2.79c-1.26-0.52-2.67-0.5-3.88,0.06l-7.71,3.6c-0.82,0.38-1.79,0.29-2.53-0.25
			c-4.2-3.07-7.89-6.75-10.96-10.96c-0.54-0.74-0.63-1.71-0.25-2.53l3.6-7.71c0.58-1.24,0.61-2.62,0.09-3.89
			c-0.52-1.27-1.52-2.22-2.81-2.69l-8.01-2.91c-0.86-0.31-1.48-1.06-1.62-1.97c-0.8-5.14-0.8-10.35,0-15.49
			c0.14-0.9,0.76-1.65,1.62-1.97l8.01-2.91c1.25-0.45,2.27-1.44,2.79-2.7c0.52-1.26,0.5-2.68-0.06-3.88
			c-0.58-1.25-0.04-2.74,1.21-3.32c1.25-0.59,2.74-0.04,3.32,1.21c1.15,2.47,1.21,5.35,0.15,7.91c-1.06,2.56-3.14,4.56-5.7,5.49
			l-6.6,2.4c-0.45,3.67-0.45,7.37,0,11.05l6.59,2.4c2.59,0.94,4.67,2.94,5.72,5.48c1.05,2.54,0.99,5.43-0.17,7.92l-2.96,6.35
			c2.28,2.92,4.9,5.54,7.82,7.82l6.35-2.96c2.47-1.15,5.36-1.21,7.91-0.15c2.56,1.06,4.56,3.14,5.49,5.7l2.4,6.59
			c3.67,0.45,7.37,0.45,11.05,0l2.4-6.59c0.93-2.56,2.93-4.64,5.49-5.7c2.55-1.06,5.44-1,7.91,0.15l6.35,2.96
			c3.3-2.58,6.22-5.59,8.7-8.98c0.81-1.12,2.38-1.36,3.49-0.54c1.12,0.81,1.36,2.38,0.55,3.49c-3.07,4.2-6.75,7.89-10.96,10.96
			c-0.74,0.54-1.71,0.63-2.53,0.25l-7.71-3.6c-1.21-0.56-2.62-0.58-3.88-0.06c-1.26,0.52-2.25,1.54-2.7,2.79l-2.91,8.01
			c-0.31,0.86-1.06,1.48-1.97,1.62C55.18,99.8,52.59,100,50.01,100z"/>
	</g>
	<g>
		<path class="st4" d="M84.79,72.76c-0.94,0-1.84-0.53-2.27-1.44c-1.15-2.47-1.21-5.35-0.15-7.91c1.06-2.56,3.14-4.56,5.7-5.49
			l6.59-2.4c0.45-3.67,0.45-7.37,0-11.05l-6.59-2.4c-2.56-0.93-4.64-2.93-5.7-5.49c-1.06-2.56-1-5.44,0.15-7.91l2.96-6.35
			c-2.28-2.92-4.9-5.54-7.82-7.82l-6.35,2.96c-2.47,1.15-5.35,1.21-7.91,0.15c-2.55-1.06-4.55-3.14-5.49-5.7l-2.4-6.59
			c-3.67-0.45-7.37-0.45-11.05,0l-2.4,6.59c-0.93,2.56-2.93,4.64-5.49,5.7c-2.55,1.06-5.44,1-7.91-0.15l-6.35-2.96
			c-3.3,2.58-6.22,5.59-8.7,8.98c-0.81,1.12-2.38,1.36-3.49,0.54c-1.12-0.81-1.36-2.38-0.55-3.49c3.07-4.2,6.75-7.89,10.96-10.96
			c0.74-0.54,1.71-0.63,2.53-0.25l7.71,3.6c1.21,0.56,2.62,0.58,3.88,0.06c1.26-0.52,2.25-1.54,2.7-2.79l2.91-8.01
			c0.31-0.86,1.06-1.48,1.96-1.62c5.14-0.8,10.35-0.8,15.49,0c0.9,0.14,1.65,0.76,1.96,1.62l2.91,8.01c0.45,1.25,1.44,2.27,2.7,2.79
			c1.26,0.52,2.67,0.5,3.88-0.06l7.71-3.6c0.83-0.38,1.79-0.29,2.53,0.25c4.21,3.07,7.89,6.76,10.96,10.96
			c0.54,0.74,0.63,1.71,0.25,2.53l-3.6,7.71c-0.56,1.2-0.58,2.62-0.06,3.88c0.52,1.26,1.54,2.25,2.79,2.7l8.01,2.91
			c0.86,0.31,1.48,1.06,1.62,1.96c0.8,5.14,0.8,10.35,0,15.49c-0.14,0.9-0.76,1.65-1.62,1.96l-8.01,2.91
			c-1.25,0.45-2.27,1.44-2.79,2.7c-0.52,1.26-0.5,2.68,0.06,3.88c0.58,1.25,0.04,2.74-1.21,3.32C85.5,72.68,85.14,72.76,84.79,72.76
			z"/>
	</g>
	<g>
		<path class="st4" d="M50.01,79.07c-16.03,0-29.07-13.04-29.07-29.07s13.04-29.07,29.07-29.07S79.08,33.97,79.08,50
			S66.04,79.07,50.01,79.07z M50.01,25.93c-13.27,0-24.07,10.8-24.07,24.07s10.8,24.07,24.07,24.07S74.08,63.27,74.08,50
			S63.28,25.93,50.01,25.93z"/>
	</g>
	<g>
		<path class="st2" d="M39.13,58.01c-0.64,0-1.28-0.24-1.77-0.73l-5.57-5.57c-0.47-0.47-0.73-1.1-0.73-1.77s0.26-1.3,0.73-1.77
			l5.57-5.57c0.98-0.98,2.56-0.98,3.54,0c0.98,0.98,0.98,2.56,0,3.54l-3.8,3.8l3.8,3.8c0.98,0.98,0.98,2.56,0,3.54
			C40.41,57.76,39.77,58.01,39.13,58.01z"/>
	</g>
	<g>
		<path class="st2" d="M60.97,58.01c-0.64,0-1.28-0.24-1.77-0.73c-0.98-0.98-0.98-2.56,0-3.54l3.8-3.8l-3.8-3.81
			c-0.98-0.98-0.98-2.56,0-3.54c0.98-0.98,2.56-0.98,3.54,0l5.57,5.57c0.98,0.98,0.98,2.56,0,3.54l-5.57,5.57
			C62.25,57.76,61.61,58.01,60.97,58.01z"/>
	</g>
	<g>
		<path class="st2" d="M47.14,61.08c-0.27,0-0.54-0.04-0.8-0.13c-1.31-0.44-2.01-1.86-1.56-3.17l5.83-17.16
			c0.44-1.31,1.86-2.01,3.17-1.56c1.31,0.44,2.01,1.86,1.56,3.17L49.5,59.39C49.15,60.43,48.18,61.08,47.14,61.08z"/>
	</g>
</g>
</svg>
