<?xml version="1.0" encoding="utf-8"?>
<!-- Generator: Adobe Illustrator 24.1.3, SVG Export Plug-In . SVG Version: 6.00 Build 0)  -->
<svg version="1.1" id="Layer_1" xmlns="http://www.w3.org/2000/svg" xmlns:xlink="http://www.w3.org/1999/xlink" x="0px" y="0px"
	 viewBox="0 0 518 440" style="enable-background:new 0 0 518 440;" xml:space="preserve">
<style type="text/css">
	.st0{fill:#CAB5FF;}
	.st1{fill:#AC7FFF;}
	.st2{fill:#8C6EEA;}
	.st3{fill:#6E49CB;}
	.st4{fill:#9C8BB7;}
	.st5{fill:#7F6997;}
	.st6{fill:#32195B;}
	.st7{fill:#432A72;}
	.st8{fill:#EA402F;}
	.st9{fill:#FC7370;}
	.st10{fill:#FC6D26;}
	.st11{fill:#FF9769;}
	.st12{fill:#FFC46C;}
	.st13{fill:#FA9F21;}
	.st14{fill:none;stroke:#342072;stroke-width:4;stroke-linecap:round;stroke-linejoin:round;stroke-miterlimit:10;}
	.st15{fill:#E64821;}
	.st16{fill:#FD7613;}
	.st17{fill:#FDAA05;}
	.st18{fill:#B1A6DD;}
	.st19{fill:#342072;}
	.st20{fill:#FFFFFF;}
	.st21{fill:none;stroke:#B1A6DD;stroke-width:4;stroke-linecap:round;stroke-linejoin:round;stroke-miterlimit:10;}
	.st22{fill:#FFFFFF;stroke:#342072;stroke-width:4;stroke-linecap:round;stroke-linejoin:round;stroke-miterlimit:10;}
</style>
<g>
	<g>
		<g id="g48_1_" transform="translate(155.197863, 1.160267)">
			<g id="path50_1_">
				<path class="st15" d="M103.85,271.28L103.85,271.28L128,197.02H79.69L103.85,271.28L103.85,271.28z"/>
			</g>
		</g>
		<g id="g56_1_" transform="translate(28.531199, 1.160800)">
			<g id="path58_1_">
				<path class="st16" d="M230.5,271.28l-24.16-74.25h-33.82L230.5,271.28L230.5,271.28z"/>
			</g>
		</g>
		<g id="g64_1_" transform="translate(0.088533, 0.255867)">
			<g id="path66_1_">
				<path class="st17" d="M200.95,197.95L200.95,197.95l-7.35,22.56c-0.67,2.05,0.05,4.31,1.81,5.59l63.52,46.11L200.95,197.95
					L200.95,197.95z"/>
			</g>
		</g>
		<g id="g72_1_" transform="translate(29.421866, 280.255593)">
			<g id="path74_1_">
				<path class="st15" d="M171.62-82.05h33.85l-14.57-44.72c-0.75-2.29-3.99-2.29-4.77,0L171.62-82.05L171.62-82.05z"/>
			</g>
		</g>
		<g id="g76_1_" transform="translate(247.197860, 1.160800)">
			<g id="path78_1_">
				<path class="st16" d="M11.85,271.28L36,197.02h33.85L11.85,271.28L11.85,271.28z"/>
			</g>
		</g>
		<g id="g80_1_" transform="translate(246.307061, 0.255867)">
			<g id="path82_1_">
				<path class="st17" d="M70.72,197.95L70.72,197.95l7.35,22.56c0.67,2.05-0.05,4.31-1.81,5.59l-63.52,46.08L70.72,197.95
					L70.72,197.95z"/>
			</g>
		</g>
		<g id="g84_1_" transform="translate(336.973725, 280.255593)">
			<g id="path86_1_">
				<path class="st15" d="M-19.93-82.05h-33.85l14.54-44.72c0.75-2.29,3.99-2.29,4.77,0L-19.93-82.05L-19.93-82.05z"/>
			</g>
		</g>
	</g>
	<g>
		<path class="st18" d="M201.5,197.07c-0.4,0-0.81-0.12-1.17-0.37L99.04,126.03c-0.93-0.65-1.15-1.92-0.51-2.85
			c0.65-0.93,1.93-1.15,2.85-0.51l101.29,70.67c0.93,0.65,1.15,1.92,0.51,2.85C202.79,196.76,202.15,197.07,201.5,197.07z"/>
	</g>
	<g>
		<path class="st18" d="M63.26,270.7c-0.92,0-1.76-0.63-1.99-1.56c-0.27-1.1,0.41-2.21,1.51-2.47l142.78-34.6
			c1.1-0.27,2.21,0.41,2.47,1.51c0.27,1.1-0.41,2.21-1.51,2.47l-142.78,34.6C63.58,270.68,63.42,270.7,63.26,270.7z"/>
	</g>
	<g>
		<path class="st18" d="M168.56,378.85c-0.35,0-0.7-0.09-1.02-0.27c-0.98-0.56-1.32-1.81-0.76-2.79l67.83-118.08
			c0.56-0.98,1.81-1.32,2.8-0.76c0.98,0.56,1.32,1.81,0.76,2.79l-67.83,118.08C169.96,378.48,169.27,378.85,168.56,378.85z"/>
	</g>
	<g>
		<path class="st18" d="M317.05,196.78c-0.63,0-1.25-0.29-1.65-0.83c-0.67-0.91-0.48-2.19,0.43-2.86l100.73-74.17
			c0.91-0.67,2.19-0.48,2.87,0.43c0.67,0.91,0.48,2.19-0.43,2.86l-100.73,74.17C317.9,196.65,317.47,196.78,317.05,196.78z"/>
	</g>
	<g>
		<path class="st18" d="M454.74,270.7c-0.16,0-0.32-0.02-0.49-0.06l-142.78-34.6c-1.1-0.27-1.77-1.37-1.51-2.47
			c0.27-1.1,1.38-1.77,2.47-1.51l142.78,34.6c1.1,0.27,1.77,1.37,1.51,2.47C456.5,270.07,455.66,270.7,454.74,270.7z"/>
	</g>
	<g>
		<path class="st18" d="M349.44,378.85c-0.71,0-1.4-0.37-1.78-1.03l-69.02-119.85c-0.56-0.98-0.23-2.23,0.75-2.79
			c0.98-0.57,2.23-0.23,2.8,0.75l69.02,119.85c0.56,0.98,0.23,2.23-0.75,2.79C350.14,378.76,349.78,378.85,349.44,378.85z"/>
	</g>
	<g>
		<path class="st18" d="M259,200.27c-1.13,0-2.05-0.92-2.05-2.05V63.2c0-1.13,0.92-2.05,2.05-2.05c1.13,0,2.05,0.92,2.05,2.05
			v135.02C261.05,199.35,260.13,200.27,259,200.27z"/>
	</g>
	<g>
		<g id="g64_4_" transform="translate(0.088533, 0.255867)">
			<g id="path66_4_">
				<path class="st19" d="M258.91,274.28c-0.42,0-0.84-0.13-1.2-0.39l-63.53-46.12c-2.48-1.8-3.5-4.96-2.56-7.88l7.35-22.57
					c0.23-0.72,0.85-1.25,1.59-1.38c0.75-0.13,1.5,0.16,1.97,0.76l57.99,74.27c0.63,0.8,0.57,1.95-0.14,2.68
					C259.99,274.07,259.45,274.28,258.91,274.28z M201.68,202.26l-6.16,18.9c-0.4,1.22,0.03,2.55,1.07,3.3l51.77,37.58
					L201.68,202.26z"/>
			</g>
		</g>
		<g id="g80_4_" transform="translate(246.307061, 0.255867)">
			<g id="path82_4_">
				<path class="st19" d="M12.73,274.26c-0.54,0-1.08-0.21-1.47-0.62c-0.71-0.73-0.77-1.88-0.14-2.68L69.1,196.7
					c0.47-0.6,1.23-0.89,1.97-0.76c0.75,0.13,1.36,0.66,1.59,1.38l7.35,22.57c0.95,2.91-0.08,6.08-2.55,7.88l-63.53,46.09
					C13.57,274.13,13.14,274.26,12.73,274.26z M69.96,202.26l-46.68,59.76l51.77-37.56c1.03-0.75,1.46-2.08,1.07-3.3L69.96,202.26z"
					/>
			</g>
		</g>
		<g id="g56_4_" transform="translate(28.531199, 1.160800)">
			<g id="path58_6_">
				<path class="st19" d="M230.48,273.35c-0.61,0-1.22-0.28-1.62-0.79l-57.99-74.27c-0.48-0.62-0.57-1.45-0.23-2.16
					c0.34-0.7,1.06-1.15,1.84-1.15h33.83c0.89,0,1.67,0.57,1.95,1.41l24.16,74.27c0.31,0.95-0.11,1.97-0.99,2.44
					C231.14,273.27,230.81,273.35,230.48,273.35z M176.69,199.08l48.25,61.79l-20.1-61.79H176.69z"/>
			</g>
		</g>
		<g id="g76_4_" transform="translate(247.197860, 1.160800)">
			<g id="path78_4_">
				<path class="st19" d="M11.83,273.35c-0.33,0-0.66-0.08-0.96-0.24c-0.88-0.47-1.29-1.5-0.99-2.44l24.16-74.27
					c0.27-0.84,1.06-1.41,1.95-1.41h33.86c0.78,0,1.5,0.45,1.84,1.15c0.34,0.7,0.26,1.54-0.23,2.16l-58.02,74.27
					C13.05,273.08,12.44,273.35,11.83,273.35z M37.48,199.08l-20.1,61.8l48.27-61.8H37.48z"/>
			</g>
		</g>
		<g id="g48_4_" transform="translate(155.197863, 1.160267)">
			<g id="path50_4_">
				<path class="st19" d="M103.83,273.35c-0.89,0-1.67-0.57-1.95-1.41l-24.16-74.27c-0.2-0.62-0.09-1.31,0.29-1.84
					c0.39-0.53,1-0.84,1.66-0.84h48.32c0.66,0,1.27,0.31,1.66,0.84c0.39,0.53,0.49,1.21,0.29,1.84l-24.16,74.27
					C105.51,272.78,104.72,273.35,103.83,273.35z M82.49,199.08l21.34,65.6l21.34-65.6H82.49z"/>
			</g>
		</g>
		<g id="g72_4_" transform="translate(29.421866, 280.255593)">
			<g id="path74_7_">
				<path class="st19" d="M205.45-79.99H171.6c-0.66,0-1.27-0.31-1.66-0.84c-0.39-0.53-0.49-1.21-0.29-1.83l14.52-44.73
					c0.65-1.92,2.35-3.1,4.37-3.13c1.99,0.01,3.68,1.24,4.3,3.13l14.57,44.73c0.2,0.62,0.1,1.31-0.29,1.84
					C206.73-80.3,206.11-79.99,205.45-79.99z M174.41-84.08h28.22l-13.7-42.05c-0.03-0.08-0.1-0.3-0.42-0.3c0,0,0,0,0,0
					c-0.23,0-0.38,0.11-0.45,0.32L174.41-84.08z"/>
			</g>
		</g>
		<g id="g84_4_" transform="translate(336.973725, 280.255593)">
			<g id="path86_4_">
				<path class="st19" d="M-19.93-79.99h-33.86c-0.66,0-1.27-0.31-1.66-0.84c-0.39-0.53-0.49-1.21-0.29-1.84l14.54-44.73
					c0.62-1.89,2.3-3.12,4.3-3.13c0.01,0,0.02,0,0.03,0c2,0,3.7,1.22,4.33,3.11l14.55,44.76c0.2,0.62,0.09,1.31-0.29,1.84
					C-18.66-80.3-19.28-79.99-19.93-79.99z M-50.97-84.08h28.22l-13.67-42.05c-0.07-0.19-0.22-0.3-0.44-0.3c0,0,0,0,0,0
					c-0.33,0-0.4,0.22-0.42,0.3L-50.97-84.08z"/>
			</g>
		</g>
	</g>
	<g>
		<ellipse class="st20" cx="259" cy="63.2" rx="61.21" ry="61.15"/>
		<path class="st19" d="M259,126.4c-34.88,0-63.26-28.35-63.26-63.2S224.12,0,259,0c34.88,0,63.26,28.35,63.26,63.2
			S293.88,126.4,259,126.4z M259,4.09c-32.62,0-59.17,26.51-59.17,59.11S226.38,122.3,259,122.3s59.17-26.51,59.17-59.11
			S291.62,4.09,259,4.09z"/>
	</g>
	<g>
		<ellipse class="st20" cx="100.22" cy="120.56" rx="61.21" ry="61.15"/>
		<path class="st19" d="M100.22,183.76c-34.88,0-63.26-28.35-63.26-63.2s28.38-63.2,63.26-63.2s63.26,28.35,63.26,63.2
			S135.1,183.76,100.22,183.76z M100.22,61.45c-32.62,0-59.17,26.51-59.17,59.11s26.54,59.11,59.17,59.11s59.17-26.51,59.17-59.11
			S132.84,61.45,100.22,61.45z"/>
	</g>
	<g>
		<ellipse class="st20" cx="63.26" cy="268.65" rx="61.21" ry="61.15"/>
		<path class="st19" d="M63.26,331.85C28.38,331.85,0,303.5,0,268.65c0-34.85,28.38-63.2,63.26-63.2s63.26,28.35,63.26,63.2
			C126.53,303.5,98.15,331.85,63.26,331.85z M63.26,209.55c-32.62,0-59.17,26.51-59.17,59.11s26.54,59.11,59.17,59.11
			s59.17-26.51,59.17-59.11S95.89,209.55,63.26,209.55z"/>
	</g>
	<g>
		<ellipse class="st20" cx="454.74" cy="268.65" rx="61.21" ry="61.15"/>
		<path class="st19" d="M454.74,331.85c-34.88,0-63.26-28.35-63.26-63.2c0-34.85,28.38-63.2,63.26-63.2S518,233.8,518,268.65
			C518,303.5,489.62,331.85,454.74,331.85z M454.74,209.55c-32.62,0-59.17,26.51-59.17,59.11s26.54,59.11,59.17,59.11
			s59.17-26.51,59.17-59.11S487.36,209.55,454.74,209.55z"/>
	</g>
	<g>
		<ellipse class="st20" cx="349.44" cy="376.8" rx="61.21" ry="61.15"/>
		<path class="st19" d="M349.43,440c-34.88,0-63.26-28.35-63.26-63.2c0-34.85,28.38-63.2,63.26-63.2c34.88,0,63.26,28.35,63.26,63.2
			C412.7,411.65,384.32,440,349.43,440z M349.43,317.69c-32.62,0-59.17,26.51-59.17,59.11s26.54,59.11,59.17,59.11
			s59.17-26.52,59.17-59.11S382.06,317.69,349.43,317.69z"/>
	</g>
	<g>
		<path class="st19" d="M211.95,77.32h5.67v1.41h-4v2.65h3.41v1.4h-3.41v3.91h-1.66V77.32z"/>
		<path class="st19" d="M218.79,84.07v-4.42h1.65v4.2c0,1.16,0.33,1.59,1.09,1.59c0.62,0,1.03-0.29,1.56-0.97v-4.82h1.65v7.04h-1.35
			l-0.13-1.03h-0.04c-0.62,0.73-1.31,1.2-2.27,1.2C219.45,86.86,218.79,85.85,218.79,84.07z"/>
		<path class="st19" d="M226.84,84.89v-8.31h1.65v8.4c0,0.4,0.19,0.54,0.36,0.54c0.07,0,0.13,0,0.26-0.03l0.22,1.23
			c-0.2,0.09-0.49,0.14-0.88,0.14C227.27,86.86,226.84,86.1,226.84,84.89z"/>
		<path class="st19" d="M230.72,84.89v-8.31h1.65v8.4c0,0.4,0.19,0.54,0.36,0.54c0.07,0,0.13,0,0.26-0.03l0.22,1.23
			c-0.2,0.09-0.49,0.14-0.88,0.14C231.15,86.86,230.72,86.1,230.72,84.89z"/>
		<path class="st19" d="M234.16,89.44l0.3-1.29c0.13,0.04,0.33,0.1,0.5,0.1c0.75,0,1.18-0.5,1.41-1.2l0.13-0.44l-2.77-6.95h1.68
			l1.22,3.45c0.2,0.62,0.4,1.32,0.62,1.98h0.06c0.17-0.65,0.36-1.35,0.53-1.98l1.06-3.45h1.59l-2.55,7.35
			c-0.59,1.59-1.32,2.58-2.86,2.58C234.69,89.59,234.42,89.53,234.16,89.44z"/>
		<path class="st19" d="M244.39,77.49c0-0.56,0.43-0.95,1.02-0.95s1.02,0.39,1.02,0.95c0,0.54-0.43,0.93-1.02,0.93
			S244.39,78.03,244.39,77.49z M244.58,79.65h1.65v7.04h-1.65V79.65z"/>
		<path class="st19" d="M248.33,79.65h1.36l0.11,0.95h0.06c0.63-0.62,1.35-1.12,2.31-1.12c1.51,0,2.17,1.02,2.17,2.8v4.42h-1.65
			v-4.2c0-1.16-0.33-1.59-1.1-1.59c-0.62,0-1.02,0.3-1.61,0.87v4.92h-1.65V79.65z"/>
		<path class="st19" d="M256.61,84.31v-3.35h-1v-1.23l1.09-0.07l0.2-1.92h1.38v1.92h1.79v1.3h-1.79v3.35c0,0.83,0.32,1.23,0.99,1.23
			c0.24,0,0.53-0.07,0.73-0.16l0.29,1.22c-0.39,0.13-0.88,0.26-1.44,0.26C257.21,86.86,256.61,85.83,256.61,84.31z"/>
		<path class="st19" d="M260.85,83.18c0-2.29,1.59-3.7,3.24-3.7c1.91,0,2.91,1.38,2.91,3.34c0,0.32-0.03,0.63-0.07,0.8h-4.48
			c0.14,1.25,0.95,1.96,2.08,1.96c0.6,0,1.12-0.19,1.64-0.52l0.56,1.03c-0.67,0.44-1.52,0.76-2.41,0.76
			C262.37,86.86,260.85,85.5,260.85,83.18z M265.58,82.51c0-1.09-0.47-1.75-1.43-1.75c-0.83,0-1.55,0.62-1.69,1.75H265.58z"/>
		<path class="st19" d="M267.97,87.97c0-0.59,0.36-1.1,1-1.51V86.4c-0.36-0.23-0.63-0.6-0.63-1.18c0-0.54,0.37-1.02,0.78-1.3v-0.06
			c-0.47-0.36-0.92-1.03-0.92-1.86c0-1.62,1.31-2.52,2.78-2.52c0.39,0,0.75,0.07,1.03,0.17h2.53v1.22h-1.29
			c0.23,0.27,0.4,0.7,0.4,1.19c0,1.56-1.18,2.39-2.67,2.39c-0.3,0-0.65-0.06-0.96-0.19c-0.22,0.19-0.34,0.36-0.34,0.67
			c0,0.4,0.29,0.65,1.15,0.65h1.25c1.69,0,2.58,0.52,2.58,1.73c0,1.39-1.46,2.48-3.76,2.48C269.22,89.8,267.97,89.2,267.97,87.97z
			 M273.06,87.59c0-0.54-0.45-0.7-1.25-0.7h-0.96c-0.39,0-0.69-0.03-0.96-0.1c-0.37,0.29-0.55,0.6-0.55,0.93c0,0.63,0.69,1,1.81,1
			C272.29,88.73,273.06,88.2,273.06,87.59z M272.2,82c0-0.87-0.53-1.39-1.22-1.39c-0.69,0-1.23,0.5-1.23,1.39
			c0,0.9,0.55,1.42,1.23,1.42C271.65,83.42,272.2,82.91,272.2,82z"/>
		<path class="st19" d="M275.9,79.65h1.36l0.11,1.25h0.06c0.5-0.92,1.25-1.42,1.99-1.42c0.36,0,0.59,0.04,0.8,0.14l-0.29,1.43
			c-0.24-0.07-0.43-0.11-0.73-0.11c-0.56,0-1.23,0.39-1.66,1.45v4.3h-1.65V79.65z"/>
		<path class="st19" d="M280.5,84.8c0-1.51,1.25-2.29,4.15-2.61c-0.03-0.75-0.33-1.38-1.29-1.38c-0.69,0-1.35,0.32-1.98,0.69
			l-0.6-1.1c0.78-0.49,1.78-0.92,2.9-0.92c1.75,0,2.63,1.08,2.63,3.04v4.17h-1.36l-0.12-0.77h-0.06c-0.63,0.53-1.35,0.95-2.18,0.95
			C281.35,86.86,280.5,86.03,280.5,84.8z M284.65,84.8v-1.58c-1.92,0.24-2.55,0.75-2.55,1.45c0,0.63,0.43,0.9,1.02,0.9
			C283.69,85.57,284.12,85.29,284.65,84.8z"/>
		<path class="st19" d="M288.29,84.31v-3.35h-1v-1.23l1.09-0.07l0.2-1.92h1.38v1.92h1.79v1.3h-1.79v3.35c0,0.83,0.32,1.23,0.99,1.23
			c0.24,0,0.53-0.07,0.73-0.16l0.29,1.22c-0.39,0.13-0.88,0.26-1.44,0.26C288.89,86.86,288.29,85.83,288.29,84.31z"/>
		<path class="st19" d="M292.54,83.18c0-2.29,1.59-3.7,3.24-3.7c1.91,0,2.91,1.38,2.91,3.34c0,0.32-0.03,0.63-0.07,0.8h-4.48
			c0.14,1.25,0.95,1.96,2.08,1.96c0.6,0,1.12-0.19,1.64-0.52l0.56,1.03c-0.67,0.44-1.52,0.76-2.41,0.76
			C294.06,86.86,292.54,85.5,292.54,83.18z M297.26,82.51c0-1.09-0.47-1.75-1.43-1.75c-0.83,0-1.55,0.62-1.69,1.75H297.26z"/>
		<path class="st19" d="M299.84,83.18c0-2.29,1.45-3.7,2.99-3.7c0.8,0,1.31,0.3,1.85,0.77l-0.06-1.13v-2.55h1.65v10.12h-1.36
			l-0.11-0.76h-0.06c-0.52,0.52-1.23,0.93-1.99,0.93C300.97,86.86,299.84,85.5,299.84,83.18z M304.61,84.71v-3.28
			c-0.49-0.43-0.96-0.59-1.44-0.59c-0.9,0-1.64,0.85-1.64,2.32c0,1.52,0.57,2.34,1.59,2.34C303.68,85.5,304.14,85.26,304.61,84.71z"
			/>
	</g>
	<g>
		<path class="st19" d="M61.43,131.28c0-3.24,1.81-5.16,4.43-5.16c2.63,0,4.44,1.92,4.44,5.16c0,3.25-1.81,5.25-4.44,5.25
			C63.25,136.53,61.43,134.53,61.43,131.28z M68.46,131.28c0-2.24-1.01-3.61-2.6-3.61s-2.6,1.37-2.6,3.61c0,2.26,1.01,3.7,2.6,3.7
			S68.46,133.54,68.46,131.28z"/>
		<path class="st19" d="M72.16,128.81h1.46l0.12,1.01h0.06c0.68-0.66,1.44-1.2,2.47-1.2c1.61,0,2.32,1.09,2.32,2.99v4.73h-1.77v-4.5
			c0-1.24-0.35-1.7-1.18-1.7c-0.66,0-1.09,0.32-1.72,0.94v5.27h-1.77V128.81z"/>
		<path class="st19" d="M80.27,132.59c0-2.46,1.71-3.96,3.47-3.96c2.04,0,3.12,1.47,3.12,3.58c0,0.34-0.03,0.68-0.08,0.86h-4.79
			c0.15,1.34,1.01,2.1,2.23,2.1c0.65,0,1.2-0.2,1.75-0.55l0.6,1.11c-0.72,0.48-1.63,0.81-2.58,0.81
			C81.9,136.53,80.27,135.07,80.27,132.59z M85.33,131.86c0-1.17-0.51-1.87-1.54-1.87c-0.89,0-1.66,0.66-1.81,1.87H85.33z"/>
		<path class="st19" d="M88.23,131.83h3.66v1.29h-3.66V131.83z"/>
		<path class="st19" d="M93.16,132.59c0-2.52,1.77-3.96,3.78-3.96c0.97,0,1.66,0.37,2.21,0.84l-0.86,1.15
			c-0.4-0.35-0.78-0.55-1.26-0.55c-1.21,0-2.06,1-2.06,2.52c0,1.5,0.83,2.5,2.01,2.5c0.58,0,1.12-0.29,1.55-0.64l0.72,1.17
			c-0.71,0.61-1.6,0.92-2.46,0.92C94.75,136.53,93.16,135.09,93.16,132.59z"/>
		<path class="st19" d="M100.76,134.41v-8.9h1.77v9c0,0.43,0.2,0.58,0.38,0.58c0.08,0,0.14,0,0.28-0.03l0.23,1.32
			c-0.22,0.09-0.52,0.15-0.94,0.15C101.22,136.53,100.76,135.72,100.76,134.41z"/>
		<path class="st19" d="M104.72,126.49c0-0.6,0.46-1.01,1.09-1.01c0.63,0,1.09,0.41,1.09,1.01c0,0.58-0.46,1-1.09,1
			C105.18,127.49,104.72,127.07,104.72,126.49z M104.92,128.81h1.77v7.54h-1.77V128.81z"/>
		<path class="st19" d="M108.45,132.59c0-2.52,1.77-3.96,3.78-3.96c0.97,0,1.66,0.37,2.21,0.84l-0.86,1.15
			c-0.4-0.35-0.78-0.55-1.26-0.55c-1.21,0-2.06,1-2.06,2.52c0,1.5,0.83,2.5,2.01,2.5c0.58,0,1.12-0.29,1.55-0.64l0.72,1.17
			c-0.71,0.61-1.6,0.92-2.46,0.92C110.04,136.53,108.45,135.09,108.45,132.59z"/>
		<path class="st19" d="M116.04,125.51h1.74v6.77h0.05l2.8-3.47h1.94l-2.58,3.07l2.84,4.47h-1.92l-1.94-3.27l-1.18,1.35v1.92h-1.74
			V125.51z"/>
		<path class="st19" d="M127.4,133.8v-3.59h-1.08v-1.32l1.17-0.08l0.22-2.06h1.47v2.06h1.92v1.4h-1.92v3.59
			c0,0.89,0.34,1.32,1.06,1.32c0.26,0,0.57-0.08,0.78-0.17l0.31,1.3c-0.41,0.14-0.94,0.28-1.54,0.28
			C128.05,136.53,127.4,135.43,127.4,133.8z"/>
		<path class="st19" d="M131.95,132.59c0-2.52,1.71-3.96,3.58-3.96c1.89,0,3.6,1.44,3.6,3.96c0,2.5-1.71,3.95-3.6,3.95
			C133.66,136.53,131.95,135.09,131.95,132.59z M137.31,132.59c0-1.52-0.68-2.52-1.78-2.52c-1.11,0-1.77,1-1.77,2.52
			c0,1.5,0.66,2.5,1.77,2.5C136.64,135.09,137.31,134.09,137.31,132.59z"/>
		<path class="st19" d="M63.54,151.01c0-2.52,1.77-3.96,3.78-3.96c0.97,0,1.66,0.37,2.21,0.84l-0.86,1.15
			c-0.4-0.35-0.78-0.55-1.26-0.55c-1.21,0-2.06,1-2.06,2.52c0,1.5,0.83,2.5,2.01,2.5c0.58,0,1.12-0.29,1.55-0.65l0.72,1.17
			c-0.71,0.61-1.6,0.92-2.46,0.92C65.12,154.95,63.54,153.51,63.54,151.01z"/>
		<path class="st19" d="M70.27,151.01c0-2.52,1.71-3.96,3.58-3.96c1.89,0,3.6,1.44,3.6,3.96c0,2.5-1.71,3.94-3.6,3.94
			C71.97,154.95,70.27,153.51,70.27,151.01z M75.63,151.01c0-1.52-0.68-2.52-1.78-2.52c-1.11,0-1.77,1-1.77,2.52
			c0,1.5,0.66,2.5,1.77,2.5C74.96,153.51,75.63,152.51,75.63,151.01z"/>
		<path class="st19" d="M79.2,152.83v-8.9h1.77v9c0,0.43,0.2,0.58,0.38,0.58c0.08,0,0.14,0,0.28-0.03l0.23,1.32
			c-0.22,0.09-0.52,0.15-0.94,0.15C79.66,154.95,79.2,154.14,79.2,152.83z"/>
		<path class="st19" d="M83.36,152.83v-8.9h1.77v9c0,0.43,0.2,0.58,0.38,0.58c0.08,0,0.14,0,0.28-0.03l0.23,1.32
			c-0.22,0.09-0.52,0.15-0.94,0.15C83.82,154.95,83.36,154.14,83.36,152.83z"/>
		<path class="st19" d="M87.13,152.74c0-1.61,1.34-2.46,4.44-2.79c-0.03-0.8-0.35-1.47-1.38-1.47c-0.74,0-1.44,0.34-2.12,0.74
			l-0.65-1.18c0.83-0.52,1.91-0.98,3.1-0.98c1.87,0,2.81,1.15,2.81,3.25v4.47h-1.46l-0.12-0.83h-0.06
			c-0.68,0.57-1.44,1.01-2.34,1.01C88.03,154.95,87.13,154.06,87.13,152.74z M91.57,152.74v-1.69c-2.06,0.26-2.73,0.8-2.73,1.55
			c0,0.68,0.46,0.97,1.09,0.97C90.54,153.57,91,153.26,91.57,152.74z"/>
		<path class="st19" d="M97.05,153.97h-0.05l-0.15,0.8h-1.4v-10.84h1.77v2.79l-0.05,1.26c0.63-0.55,1.41-0.94,2.18-0.94
			c1.89,0,2.98,1.5,2.98,3.82c0,2.59-1.55,4.08-3.23,4.08C98.42,154.95,97.68,154.6,97.05,153.97z M100.51,150.9
			c0-1.5-0.49-2.39-1.63-2.39c-0.55,0-1.08,0.28-1.66,0.84v3.51c0.54,0.46,1.08,0.63,1.52,0.63
			C99.74,153.49,100.51,152.6,100.51,150.9z"/>
		<path class="st19" d="M103.61,151.01c0-2.52,1.71-3.96,3.58-3.96c1.89,0,3.6,1.44,3.6,3.96c0,2.5-1.71,3.94-3.6,3.94
			C105.32,154.95,103.61,153.51,103.61,151.01z M108.98,151.01c0-1.52-0.68-2.52-1.78-2.52c-1.11,0-1.77,1-1.77,2.52
			c0,1.5,0.66,2.5,1.77,2.5C108.3,153.51,108.98,152.51,108.98,151.01z"/>
		<path class="st19" d="M112.54,147.23H114l0.12,1.34h0.06c0.54-0.98,1.34-1.52,2.14-1.52c0.38,0,0.63,0.05,0.86,0.15l-0.31,1.54
			c-0.26-0.08-0.46-0.12-0.78-0.12c-0.6,0-1.32,0.41-1.78,1.55v4.61h-1.77V147.23z"/>
		<path class="st19" d="M117.47,152.74c0-1.61,1.34-2.46,4.44-2.79c-0.03-0.8-0.35-1.47-1.38-1.47c-0.74,0-1.44,0.34-2.12,0.74
			l-0.65-1.18c0.83-0.52,1.9-0.98,3.1-0.98c1.87,0,2.81,1.15,2.81,3.25v4.47h-1.46l-0.12-0.83h-0.06c-0.68,0.57-1.44,1.01-2.34,1.01
			C118.38,154.95,117.47,154.06,117.47,152.74z M121.92,152.74v-1.69c-2.06,0.26-2.74,0.8-2.74,1.55c0,0.68,0.46,0.97,1.09,0.97
			C120.89,153.57,121.35,153.26,121.92,152.74z"/>
		<path class="st19" d="M125.82,152.22v-3.59h-1.08v-1.32l1.17-0.08l0.22-2.06h1.47v2.06h1.92v1.4h-1.92v3.59
			c0,0.89,0.34,1.32,1.06,1.32c0.26,0,0.57-0.08,0.78-0.17l0.31,1.31c-0.41,0.14-0.94,0.28-1.54,0.28
			C126.46,154.95,125.82,153.85,125.82,152.22z"/>
		<path class="st19" d="M130.37,151.01c0-2.46,1.71-3.96,3.47-3.96c2.04,0,3.12,1.47,3.12,3.58c0,0.34-0.03,0.68-0.08,0.86h-4.79
			c0.15,1.34,1.01,2.1,2.23,2.1c0.65,0,1.2-0.2,1.75-0.55l0.6,1.11c-0.72,0.48-1.63,0.81-2.58,0.81
			C132,154.95,130.37,153.49,130.37,151.01z M135.42,150.28c0-1.17-0.51-1.87-1.54-1.87c-0.89,0-1.66,0.66-1.81,1.87H135.42z"/>
	</g>
	<g>
		<path class="st19" d="M19.17,274.03h2.09l3.27,10.04h-1.87l-0.78-2.72h-3.38l-0.78,2.72H15.9L19.17,274.03z M18.91,279.96h2.57
			l-0.35-1.23c-0.32-1.06-0.61-2.21-0.91-3.32h-0.06c-0.28,1.12-0.57,2.26-0.89,3.32L18.91,279.96z"/>
		<path class="st19" d="M25.49,281.26v-4.73h1.77v4.5c0,1.24,0.35,1.7,1.17,1.7c0.66,0,1.11-0.31,1.67-1.04v-5.16h1.77v7.54h-1.44
			l-0.14-1.11h-0.05c-0.66,0.78-1.4,1.29-2.43,1.29C26.19,284.25,25.49,283.16,25.49,281.26z"/>
		<path class="st19" d="M34.37,281.52v-3.59h-1.08v-1.32l1.17-0.08l0.22-2.06h1.48v2.06h1.92v1.4h-1.92v3.59
			c0,0.89,0.34,1.32,1.06,1.32c0.26,0,0.57-0.08,0.78-0.17l0.31,1.31c-0.42,0.14-0.94,0.28-1.54,0.28
			C35.01,284.25,34.37,283.15,34.37,281.52z"/>
		<path class="st19" d="M38.92,280.31c0-2.52,1.71-3.96,3.58-3.96c1.89,0,3.6,1.44,3.6,3.96c0,2.5-1.71,3.94-3.6,3.94
			C40.62,284.25,38.92,282.81,38.92,280.31z M44.28,280.31c0-1.52-0.68-2.52-1.78-2.52c-1.11,0-1.77,1-1.77,2.52
			c0,1.5,0.66,2.5,1.77,2.5C43.6,282.81,44.28,281.81,44.28,280.31z"/>
		<path class="st19" d="M47.84,276.53h1.46l0.12,1.03h0.06c0.63-0.67,1.37-1.21,2.31-1.21c1.11,0,1.74,0.51,2.09,1.35
			c0.72-0.77,1.48-1.35,2.43-1.35c1.6,0,2.34,1.09,2.34,2.99v4.73h-1.78v-4.5c0-1.24-0.37-1.7-1.15-1.7c-0.48,0-1,0.31-1.58,0.94
			v5.27h-1.77v-4.5c0-1.24-0.37-1.7-1.17-1.7c-0.46,0-1,0.31-1.58,0.94v5.27h-1.77V276.53z"/>
		<path class="st19" d="M60.4,282.04c0-1.61,1.34-2.46,4.44-2.79c-0.03-0.8-0.35-1.47-1.38-1.47c-0.74,0-1.44,0.34-2.12,0.74
			l-0.65-1.18c0.83-0.52,1.91-0.98,3.1-0.98c1.87,0,2.81,1.15,2.81,3.25v4.47h-1.46l-0.12-0.83h-0.06
			c-0.68,0.57-1.44,1.01-2.34,1.01C61.3,284.25,60.4,283.36,60.4,282.04z M64.84,282.04v-1.69c-2.06,0.26-2.74,0.8-2.74,1.55
			c0,0.68,0.46,0.97,1.09,0.97C63.81,282.87,64.27,282.57,64.84,282.04z"/>
		<path class="st19" d="M68.74,281.52v-3.59h-1.08v-1.32l1.17-0.08l0.22-2.06h1.47v2.06h1.92v1.4h-1.92v3.59
			c0,0.89,0.34,1.32,1.06,1.32c0.26,0,0.57-0.08,0.78-0.17l0.31,1.31c-0.41,0.14-0.94,0.28-1.54,0.28
			C69.39,284.25,68.74,283.15,68.74,281.52z"/>
		<path class="st19" d="M73.83,274.22c0-0.6,0.46-1.01,1.09-1.01s1.09,0.41,1.09,1.01c0,0.58-0.46,1-1.09,1
			S73.83,274.8,73.83,274.22z M74.03,276.53h1.77v7.54h-1.77V276.53z"/>
		<path class="st19" d="M77.56,280.31c0-2.52,1.77-3.96,3.78-3.96c0.97,0,1.66,0.37,2.21,0.84l-0.86,1.15
			c-0.4-0.35-0.78-0.55-1.26-0.55c-1.21,0-2.06,1-2.06,2.52c0,1.5,0.83,2.5,2.01,2.5c0.58,0,1.12-0.29,1.55-0.64l0.72,1.17
			c-0.71,0.61-1.6,0.92-2.46,0.92C79.15,284.25,77.56,282.81,77.56,280.31z"/>
		<path class="st19" d="M88.23,282.14v-8.9h1.77v9c0,0.43,0.2,0.58,0.38,0.58c0.08,0,0.14,0,0.28-0.03l0.23,1.32
			c-0.22,0.09-0.52,0.15-0.94,0.15C88.69,284.25,88.23,283.44,88.23,282.14z"/>
		<path class="st19" d="M92.19,274.22c0-0.6,0.46-1.01,1.09-1.01c0.63,0,1.09,0.41,1.09,1.01c0,0.58-0.46,1-1.09,1
			C92.65,275.21,92.19,274.8,92.19,274.22z M92.39,276.53h1.77v7.54h-1.77V276.53z"/>
		<path class="st19" d="M95.48,276.53h1.8l1.2,3.91c0.2,0.74,0.43,1.5,0.63,2.27h0.06c0.22-0.77,0.43-1.54,0.65-2.27l1.2-3.91h1.71
			l-2.57,7.54h-2.04L95.48,276.53z"/>
		<path class="st19" d="M103.44,280.31c0-2.46,1.71-3.96,3.47-3.96c2.04,0,3.12,1.47,3.12,3.58c0,0.34-0.03,0.68-0.08,0.86h-4.79
			c0.15,1.34,1.01,2.1,2.23,2.1c0.65,0,1.2-0.2,1.75-0.55l0.6,1.11c-0.72,0.48-1.63,0.81-2.58,0.81
			C105.07,284.25,103.44,282.8,103.44,280.31z M108.5,279.59c0-1.17-0.51-1.87-1.54-1.87c-0.89,0-1.66,0.66-1.81,1.87H108.5z"/>
		<path class="st19" d="M34.6,294.96h1.46l0.12,0.8h0.06c0.63-0.54,1.44-0.98,2.27-0.98c1.87,0,2.97,1.5,2.97,3.84
			c0,2.58-1.55,4.07-3.23,4.07c-0.66,0-1.32-0.31-1.94-0.83l0.05,1.26v2.36H34.6V294.96z M39.65,298.62c0-1.5-0.49-2.39-1.63-2.39
			c-0.55,0-1.08,0.28-1.66,0.84v3.51c0.55,0.46,1.08,0.63,1.52,0.63C38.88,301.22,39.65,300.33,39.65,298.62z"/>
		<path class="st19" d="M43.26,294.96h1.46l0.12,1.34h0.06c0.54-0.98,1.34-1.52,2.14-1.52c0.38,0,0.63,0.05,0.86,0.15l-0.31,1.54
			c-0.26-0.08-0.46-0.12-0.78-0.12c-0.6,0-1.32,0.41-1.78,1.55v4.61h-1.77V294.96z"/>
		<path class="st19" d="M48.35,298.73c0-2.46,1.71-3.96,3.47-3.96c2.04,0,3.12,1.47,3.12,3.58c0,0.34-0.03,0.68-0.08,0.86h-4.79
			c0.15,1.34,1.01,2.1,2.23,2.1c0.65,0,1.2-0.2,1.75-0.55l0.6,1.11c-0.72,0.48-1.63,0.81-2.58,0.81
			C49.98,302.68,48.35,301.22,48.35,298.73z M53.41,298.01c0-1.17-0.51-1.87-1.54-1.87c-0.89,0-1.66,0.66-1.81,1.87H53.41z"/>
		<path class="st19" d="M55.7,294.96h1.8l1.2,3.91c0.2,0.74,0.43,1.5,0.63,2.27h0.06c0.22-0.77,0.43-1.54,0.65-2.27l1.2-3.91h1.71
			l-2.57,7.54h-2.04L55.7,294.96z"/>
		<path class="st19" d="M64.04,292.64c0-0.6,0.46-1.01,1.09-1.01c0.63,0,1.09,0.41,1.09,1.01c0,0.58-0.46,1-1.09,1
			C64.5,293.63,64.04,293.22,64.04,292.64z M64.24,294.96h1.77v7.54h-1.77V294.96z"/>
		<path class="st19" d="M67.77,298.73c0-2.46,1.71-3.96,3.47-3.96c2.04,0,3.12,1.47,3.12,3.58c0,0.34-0.03,0.68-0.08,0.86H69.5
			c0.15,1.34,1.01,2.1,2.23,2.1c0.65,0,1.2-0.2,1.75-0.55l0.6,1.11c-0.72,0.48-1.63,0.81-2.58,0.81
			C69.4,302.68,67.77,301.22,67.77,298.73z M72.83,298.01c0-1.17-0.51-1.87-1.54-1.87c-0.89,0-1.66,0.66-1.81,1.87H72.83z"/>
		<path class="st19" d="M75.3,294.96h1.78l0.91,3.91c0.15,0.72,0.26,1.43,0.4,2.16h0.06c0.14-0.74,0.29-1.46,0.48-2.16l0.98-3.91
			h1.61l1,3.91c0.18,0.72,0.34,1.43,0.51,2.16h0.06c0.14-0.74,0.26-1.44,0.4-2.16l0.91-3.91h1.66l-1.92,7.54h-2.1l-0.88-3.51
			c-0.17-0.71-0.29-1.4-0.46-2.2h-0.06c-0.14,0.8-0.28,1.51-0.45,2.21l-0.86,3.5H77.3L75.3,294.96z"/>
		<path class="st19" d="M86.8,301.63l0.83-1.14c0.68,0.52,1.32,0.84,2.09,0.84c0.81,0,1.2-0.38,1.2-0.91c0-0.63-0.81-0.91-1.61-1.21
			c-1-0.37-2.12-0.94-2.12-2.19c0-1.32,1.06-2.26,2.75-2.26c1.04,0,1.89,0.43,2.51,0.91l-0.82,1.08c-0.52-0.38-1.06-0.64-1.66-0.64
			c-0.75,0-1.11,0.35-1.11,0.83c0,0.6,0.75,0.83,1.57,1.12c1.03,0.38,2.17,0.88,2.17,2.29c0,1.29-1.03,2.33-2.94,2.33
			C88.63,302.68,87.54,302.23,86.8,301.63z"/>
	</g>
	<g>
		<path class="st19" d="M407.92,283.78h1.89l1.41,5.05c0.32,1.14,0.55,2.12,0.89,3.27h0.06c0.34-1.15,0.57-2.13,0.88-3.27l1.4-5.05
			h1.83l-3.12,10.04h-2.1L407.92,283.78z"/>
		<path class="st19" d="M417.14,283.96c0-0.6,0.46-1.01,1.09-1.01s1.09,0.41,1.09,1.01c0,0.58-0.46,1-1.09,1
			S417.14,284.54,417.14,283.96z M417.34,286.28h1.77v7.54h-1.77V286.28z"/>
		<path class="st19" d="M420.61,292.96l0.83-1.14c0.68,0.52,1.32,0.84,2.09,0.84c0.81,0,1.2-0.38,1.2-0.91
			c0-0.63-0.81-0.91-1.61-1.21c-1-0.37-2.12-0.94-2.12-2.2c0-1.32,1.06-2.26,2.75-2.26c1.04,0,1.89,0.43,2.5,0.91l-0.81,1.07
			c-0.52-0.38-1.06-0.64-1.66-0.64c-0.75,0-1.11,0.35-1.11,0.83c0,0.6,0.75,0.83,1.57,1.12c1.03,0.38,2.17,0.88,2.17,2.29
			c0,1.29-1.03,2.33-2.94,2.33C422.44,294,421.35,293.55,420.61,292.96z"/>
		<path class="st19" d="M427.91,291.01v-4.73h1.77v4.5c0,1.24,0.35,1.7,1.17,1.7c0.66,0,1.11-0.31,1.67-1.04v-5.16h1.77v7.54h-1.44
			l-0.14-1.11h-0.05c-0.66,0.78-1.4,1.29-2.43,1.29C428.62,294,427.91,292.91,427.91,291.01z"/>
		<path class="st19" d="M436.14,291.79c0-1.61,1.34-2.46,4.44-2.79c-0.03-0.8-0.35-1.47-1.38-1.47c-0.74,0-1.44,0.34-2.12,0.74
			l-0.65-1.18c0.83-0.52,1.91-0.98,3.1-0.98c1.87,0,2.81,1.15,2.81,3.26v4.47h-1.46l-0.12-0.83h-0.06
			c-0.68,0.57-1.44,1.01-2.34,1.01C437.04,294,436.14,293.11,436.14,291.79z M440.58,291.79v-1.69c-2.06,0.26-2.74,0.8-2.74,1.55
			c0,0.67,0.46,0.97,1.09,0.97C439.55,292.62,440.01,292.31,440.58,291.79z"/>
		<path class="st19" d="M444.46,291.88v-8.9h1.77v8.99c0,0.43,0.2,0.58,0.38,0.58c0.08,0,0.14,0,0.28-0.03l0.23,1.32
			c-0.22,0.09-0.52,0.15-0.94,0.15C444.93,294,444.46,293.19,444.46,291.88z"/>
		<path class="st19" d="M451.7,286.28h1.46l0.12,1.34h0.06c0.54-0.98,1.34-1.52,2.14-1.52c0.38,0,0.63,0.05,0.86,0.15l-0.31,1.54
			c-0.26-0.08-0.46-0.12-0.78-0.12c-0.6,0-1.32,0.41-1.78,1.55v4.61h-1.77V286.28z"/>
		<path class="st19" d="M456.79,290.05c0-2.46,1.71-3.96,3.47-3.96c2.04,0,3.12,1.47,3.12,3.58c0,0.34-0.03,0.68-0.08,0.86h-4.79
			c0.15,1.34,1.01,2.1,2.23,2.1c0.65,0,1.2-0.2,1.75-0.55l0.6,1.11c-0.72,0.48-1.63,0.81-2.58,0.81
			C458.42,294,456.79,292.54,456.79,290.05z M461.84,289.33c0-1.17-0.51-1.87-1.54-1.87c-0.89,0-1.66,0.66-1.81,1.87H461.84z"/>
		<path class="st19" d="M464.13,286.28h1.8l1.2,3.91c0.2,0.74,0.43,1.51,0.63,2.27h0.06c0.22-0.77,0.43-1.54,0.65-2.27l1.2-3.91
			h1.71l-2.57,7.54h-2.04L464.13,286.28z"/>
		<path class="st19" d="M472.48,283.96c0-0.6,0.46-1.01,1.09-1.01c0.63,0,1.09,0.41,1.09,1.01c0,0.58-0.46,1-1.09,1
			C472.94,284.96,472.48,284.54,472.48,283.96z M472.68,286.28h1.77v7.54h-1.77V286.28z"/>
		<path class="st19" d="M476.21,290.05c0-2.46,1.71-3.96,3.47-3.96c2.04,0,3.12,1.47,3.12,3.58c0,0.34-0.03,0.68-0.08,0.86h-4.79
			c0.15,1.34,1.01,2.1,2.23,2.1c0.65,0,1.2-0.2,1.75-0.55l0.6,1.11c-0.72,0.48-1.63,0.81-2.58,0.81
			C477.84,294,476.21,292.54,476.21,290.05z M481.27,289.33c0-1.17-0.51-1.87-1.54-1.87c-0.89,0-1.66,0.66-1.81,1.87H481.27z"/>
		<path class="st19" d="M483.74,286.28h1.78l0.91,3.91c0.15,0.72,0.26,1.43,0.4,2.16h0.06c0.14-0.74,0.29-1.46,0.48-2.16l0.98-3.91
			h1.61l1,3.91c0.18,0.72,0.34,1.43,0.51,2.16h0.06c0.14-0.74,0.26-1.44,0.4-2.16l0.91-3.91h1.66l-1.92,7.54h-2.1l-0.88-3.51
			c-0.17-0.71-0.29-1.4-0.46-2.19h-0.06c-0.14,0.8-0.28,1.5-0.45,2.21l-0.86,3.5h-2.03L483.74,286.28z"/>
		<path class="st19" d="M495.24,292.96l0.83-1.14c0.68,0.52,1.32,0.84,2.09,0.84c0.81,0,1.2-0.38,1.2-0.91
			c0-0.63-0.81-0.91-1.61-1.21c-1-0.37-2.12-0.94-2.12-2.2c0-1.32,1.06-2.26,2.75-2.26c1.04,0,1.89,0.43,2.51,0.91l-0.82,1.07
			c-0.52-0.38-1.06-0.64-1.66-0.64c-0.75,0-1.11,0.35-1.11,0.83c0,0.6,0.75,0.83,1.57,1.12c1.03,0.38,2.17,0.88,2.17,2.29
			c0,1.29-1.03,2.33-2.94,2.33C497.06,294,495.97,293.55,495.24,292.96z"/>
	</g>
	<g>
		<path class="st19" d="M311.61,392.84h3.4c2.09,0,3.69,0.74,3.69,2.98c0,1.54-0.8,2.46-2,2.87l2.4,4.19h-2l-2.17-3.93h-1.54v3.93
			h-1.78V392.84z M314.82,397.54c1.37,0,2.12-0.58,2.12-1.72c0-1.15-0.75-1.55-2.12-1.55h-1.43v3.27H314.82z"/>
		<path class="st19" d="M319.91,399.12c0-2.52,1.71-3.96,3.58-3.96c1.89,0,3.6,1.44,3.6,3.96c0,2.5-1.71,3.95-3.6,3.95
			C321.61,403.06,319.91,401.62,319.91,399.12z M325.27,399.12c0-1.52-0.68-2.52-1.78-2.52c-1.11,0-1.77,1-1.77,2.52
			c0,1.51,0.66,2.5,1.77,2.5C324.6,401.62,325.27,400.62,325.27,399.12z"/>
		<path class="st19" d="M328.76,400.07v-4.73h1.77v4.5c0,1.24,0.35,1.7,1.17,1.7c0.66,0,1.11-0.31,1.68-1.04v-5.16h1.77v7.54h-1.44
			l-0.14-1.11h-0.05c-0.66,0.78-1.4,1.29-2.43,1.29C329.47,403.06,328.76,401.97,328.76,400.07z"/>
		<path class="st19" d="M337.64,400.33v-3.59h-1.08v-1.32l1.17-0.08l0.22-2.06h1.48v2.06h1.92v1.4h-1.92v3.59
			c0,0.89,0.34,1.32,1.06,1.32c0.26,0,0.57-0.08,0.78-0.17l0.31,1.31c-0.42,0.14-0.94,0.28-1.54,0.28
			C338.29,403.06,337.64,401.96,337.64,400.33z"/>
		<path class="st19" d="M342.19,399.12c0-2.46,1.71-3.96,3.47-3.96c2.04,0,3.12,1.47,3.12,3.58c0,0.34-0.03,0.68-0.08,0.86h-4.79
			c0.15,1.34,1.01,2.1,2.23,2.1c0.65,0,1.2-0.2,1.75-0.55l0.6,1.11c-0.72,0.48-1.63,0.81-2.58,0.81
			C343.82,403.06,342.19,401.6,342.19,399.12z M347.25,398.4c0-1.17-0.51-1.87-1.54-1.87c-0.89,0-1.66,0.66-1.81,1.87H347.25z"/>
		<path class="st19" d="M353.55,395.34h1.46l0.12,1.03h0.06c0.63-0.67,1.37-1.21,2.3-1.21c1.11,0,1.74,0.51,2.09,1.35
			c0.72-0.77,1.48-1.35,2.43-1.35c1.6,0,2.34,1.09,2.34,2.99v4.73h-1.78v-4.5c0-1.24-0.37-1.7-1.15-1.7c-0.48,0-1,0.31-1.58,0.94
			v5.27h-1.77v-4.5c0-1.24-0.37-1.7-1.17-1.7c-0.46,0-1,0.31-1.58,0.94v5.27h-1.77V395.34z"/>
		<path class="st19" d="M366.1,400.85c0-1.61,1.34-2.46,4.44-2.79c-0.03-0.8-0.35-1.47-1.38-1.47c-0.74,0-1.44,0.34-2.12,0.74
			l-0.65-1.18c0.83-0.52,1.9-0.98,3.1-0.98c1.87,0,2.81,1.15,2.81,3.25v4.47h-1.46l-0.12-0.83h-0.06c-0.68,0.57-1.44,1.01-2.34,1.01
			C367.01,403.06,366.1,402.17,366.1,400.85z M370.54,400.85v-1.69c-2.06,0.26-2.74,0.8-2.74,1.55c0,0.68,0.46,0.97,1.09,0.97
			C369.51,401.68,369.97,401.37,370.54,400.85z"/>
		<path class="st19" d="M374.43,395.34h1.46l0.12,0.8h0.06c0.63-0.54,1.44-0.98,2.27-0.98c1.87,0,2.97,1.5,2.97,3.84
			c0,2.58-1.55,4.07-3.23,4.07c-0.66,0-1.32-0.31-1.94-0.83l0.05,1.26v2.36h-1.77V395.34z M379.48,399.01c0-1.5-0.49-2.39-1.63-2.39
			c-0.55,0-1.08,0.28-1.66,0.84v3.51c0.55,0.46,1.08,0.63,1.52,0.63C378.72,401.6,379.48,400.72,379.48,399.01z"/>
		<path class="st19" d="M382.28,402.02l0.83-1.14c0.68,0.52,1.32,0.84,2.09,0.84c0.81,0,1.2-0.38,1.2-0.91
			c0-0.63-0.81-0.91-1.61-1.21c-1-0.37-2.12-0.94-2.12-2.19c0-1.32,1.06-2.26,2.75-2.26c1.04,0,1.89,0.43,2.51,0.91l-0.82,1.07
			c-0.52-0.38-1.06-0.64-1.66-0.64c-0.75,0-1.11,0.35-1.11,0.83c0,0.6,0.75,0.83,1.57,1.12c1.03,0.38,2.17,0.88,2.17,2.29
			c0,1.29-1.03,2.33-2.94,2.33C384.11,403.06,383.02,402.62,382.28,402.02z"/>
	</g>
	<g>
		<path class="st2" d="M243.32,53.43l-1.62,3.47c1.31,1.8,2.9,3.38,4.69,4.69l3.48-1.62c1.74-0.81,3.85,0.06,4.5,1.86l1.31,3.61
			c2.23,0.35,4.46,0.34,6.63,0l1.31-3.61c0.66-1.8,2.77-2.67,4.5-1.86l3.48,1.62c1.8-1.31,3.38-2.89,4.69-4.69l-1.62-3.47
			c-0.81-1.74,0.06-3.84,1.87-4.5l3.61-1.31c0.34-2.2,0.34-4.43,0-6.63l-3.61-1.31c-1.8-0.66-2.68-2.76-1.87-4.5l1.62-3.47
			c-1.31-1.8-2.9-3.38-4.69-4.69l-3.48,1.62c-1.74,0.81-3.85-0.06-4.5-1.86l-1.31-3.61c-2.23-0.35-4.46-0.34-6.63,0l-1.31,3.61
			c-0.66,1.8-2.77,2.67-4.5,1.86l-3.48-1.62c-1.8,1.31-3.38,2.89-4.69,4.69l1.62,3.47c0.81,1.74-0.06,3.84-1.87,4.5l-3.61,1.31
			c-0.35,2.26-0.33,4.49,0,6.63l3.61,1.31C243.28,49.59,244.14,51.67,243.32,53.43z M252.5,44.3c0-3.59,2.91-6.5,6.5-6.5
			s6.5,2.91,6.5,6.5c0,3.59-2.91,6.5-6.5,6.5S252.5,47.89,252.5,44.3z"/>
	</g>
	<g>
		<path class="st19" d="M259,66.82c-1.17,0-2.33-0.09-3.49-0.27c-0.74-0.11-1.36-0.62-1.61-1.32l-1.26-3.45
			c-0.14-0.39-0.45-0.57-0.63-0.64c-0.17-0.07-0.52-0.16-0.89,0.01l-3.33,1.55c-0.67,0.31-1.47,0.24-2.07-0.2
			c-1.89-1.38-3.56-3.04-4.94-4.93c-0.44-0.6-0.52-1.4-0.2-2.07l1.55-3.32c0.18-0.39,0.09-0.73,0.02-0.9
			c-0.07-0.17-0.25-0.47-0.65-0.62l-3.46-1.25c-0.7-0.26-1.21-0.87-1.32-1.61c-0.36-2.31-0.36-4.66,0-6.97
			c0.11-0.74,0.62-1.35,1.32-1.61l3.45-1.25c0.39-0.14,0.57-0.45,0.64-0.62c0.07-0.17,0.17-0.52-0.01-0.89l-1.55-3.32
			c-0.32-0.68-0.24-1.47,0.2-2.07c1.38-1.89,3.04-3.55,4.94-4.93c0.6-0.44,1.4-0.52,2.07-0.2l3.33,1.55
			c0.37,0.17,0.72,0.08,0.89,0.01c0.17-0.07,0.48-0.25,0.62-0.64l1.26-3.45c0.26-0.7,0.87-1.21,1.61-1.32
			c2.32-0.36,4.66-0.36,6.98,0c0.74,0.11,1.36,0.62,1.61,1.32l1.26,3.45c0.14,0.39,0.45,0.57,0.62,0.64
			c0.17,0.07,0.52,0.16,0.89-0.01l3.33-1.55c0.68-0.32,1.47-0.24,2.07,0.2c1.89,1.38,3.56,3.04,4.94,4.93
			c0.44,0.6,0.52,1.4,0.2,2.07l-1.55,3.32c-0.18,0.37-0.08,0.72-0.01,0.89c0.07,0.17,0.25,0.48,0.64,0.62l3.45,1.25
			c0.7,0.26,1.21,0.87,1.32,1.61c0.36,2.31,0.36,4.66,0,6.97c-0.12,0.74-0.62,1.35-1.32,1.61l-3.45,1.25
			c-0.39,0.14-0.57,0.45-0.64,0.62c-0.07,0.17-0.17,0.52,0.01,0.89l1.55,3.32c0.32,0.68,0.24,1.47-0.2,2.07
			c-1.38,1.89-3.05,3.55-4.94,4.93c-0.6,0.44-1.4,0.52-2.07,0.2l-3.33-1.55c-0.37-0.17-0.72-0.08-0.89-0.01
			c-0.17,0.07-0.48,0.25-0.62,0.64l-1.26,3.45c-0.26,0.7-0.87,1.21-1.61,1.32C261.33,66.73,260.17,66.82,259,66.82z M257.32,62.65
			c1.12,0.1,2.24,0.1,3.35,0l0.83-2.27c0.49-1.36,1.55-2.46,2.91-3.02c1.35-0.56,2.88-0.53,4.19,0.08l2.19,1.02
			c0.86-0.72,1.66-1.51,2.37-2.37l-1.02-2.19c-0.61-1.31-0.64-2.84-0.08-4.19c0.56-1.35,1.66-2.41,3.02-2.9l2.27-0.83
			c0.1-1.12,0.1-2.24,0-3.35l-2.28-0.83c-1.36-0.49-2.46-1.55-3.02-2.9c-0.56-1.35-0.53-2.88,0.08-4.19l1.02-2.19
			c-0.72-0.86-1.51-1.65-2.37-2.37l-2.19,1.02c-1.31,0.61-2.84,0.64-4.19,0.08c-1.35-0.56-2.41-1.66-2.91-3.02l-0.83-2.27
			c-1.12-0.1-2.24-0.1-3.35,0l-0.83,2.27c-0.5,1.36-1.56,2.46-2.91,3.02c-1.35,0.56-2.88,0.53-4.19-0.08l-2.19-1.02
			c-0.86,0.72-1.66,1.51-2.37,2.37l1.02,2.19c0.61,1.31,0.64,2.84,0.08,4.19c-0.56,1.35-1.66,2.41-3.02,2.9l-2.27,0.83
			c-0.1,1.12-0.1,2.24,0,3.35l2.28,0.83c1.37,0.5,2.48,1.55,3.03,2.9c0.56,1.35,0.52,2.87-0.09,4.19l0,0l-1.02,2.19
			c0.72,0.86,1.51,1.65,2.37,2.37l2.19-1.02c1.31-0.61,2.84-0.64,4.19-0.08c1.35,0.56,2.41,1.66,2.91,3.02L257.32,62.65z M244,53.03
			h0.01H244z M259,52.57c-4.56,0-8.27-3.71-8.27-8.26s3.71-8.26,8.27-8.26c4.56,0,8.27,3.71,8.27,8.26S263.56,52.57,259,52.57z
			 M259,40.14c-2.3,0-4.17,1.87-4.17,4.17c0,2.3,1.87,4.17,4.17,4.17c2.3,0,4.17-1.87,4.17-4.17C263.17,42.01,261.3,40.14,259,40.14
			z"/>
	</g>
	<g>
		<g>
			<ellipse class="st20" cx="454.74" cy="254.42" rx="20.49" ry="16.37"/>
		</g>
		<g>
			<path class="st2" d="M463,254.42c0,4.56-3.7,8.26-8.27,8.26c-4.57,0-8.27-3.7-8.27-8.26c0-4.56,3.7-8.26,8.27-8.26"/>
		</g>
		<g>
			<ellipse class="st10" cx="462.33" cy="246.83" rx="5.97" ry="5.96"/>
		</g>
	</g>
	<g>
		<g>
			<path class="st19" d="M454.74,264.73c-5.69,0-10.31-4.62-10.31-10.3c0-5.68,4.63-10.3,10.31-10.3c1.13,0,2.05,0.92,2.05,2.05
				s-0.92,2.05-2.05,2.05c-3.43,0-6.22,2.79-6.22,6.21s2.79,6.21,6.22,6.21s6.22-2.79,6.22-6.21c0-1.13,0.92-2.05,2.05-2.05
				s2.05,0.92,2.05,2.05C465.05,260.11,460.42,264.73,454.74,264.73z"/>
		</g>
		<g>
			<path class="st19" d="M462.33,254.84c-4.42,0-8.02-3.59-8.02-8.01c0-4.42,3.6-8.01,8.02-8.01c4.42,0,8.02,3.59,8.02,8.01
				C470.35,251.25,466.75,254.84,462.33,254.84z M462.33,242.92c-2.16,0-3.92,1.76-3.92,3.92c0,2.16,1.76,3.92,3.92,3.92
				c2.16,0,3.92-1.76,3.92-3.92C466.25,244.68,464.49,242.92,462.33,242.92z"/>
		</g>
		<g>
			<path class="st19" d="M454.74,272.84c-8.97,0-17.32-6.57-22.35-17.56c-0.25-0.54-0.25-1.16,0-1.7
				c5.03-11,13.39-17.56,22.35-17.56c8.97,0,17.32,6.57,22.35,17.56c0.25,0.54,0.25,1.16,0,1.7
				C472.06,266.27,463.7,272.84,454.74,272.84z M436.51,254.42c4.36,8.99,11.13,14.32,18.22,14.32c7.1,0,13.86-5.33,18.22-14.32
				c-4.36-8.99-11.13-14.32-18.22-14.32C447.64,240.1,440.88,245.44,436.51,254.42z"/>
		</g>
	</g>
	<g>
		<g>
			<polygon class="st2" points="342.61,371.86 328.95,379.64 328.95,350.01 342.61,342.23 			"/>
		</g>
		<g>
			<polygon class="st1" points="356.26,379.64 342.61,371.86 342.61,342.23 356.26,350.01 			"/>
		</g>
		<g>
			<polygon class="st2" points="369.92,371.86 356.26,379.64 356.26,350.01 369.92,342.23 			"/>
		</g>
	</g>
	<g>
		<g>
			<path class="st19" d="M328.95,381.68c-0.36,0-0.71-0.09-1.03-0.28c-0.63-0.37-1.02-1.04-1.02-1.77v-29.62
				c0-0.74,0.4-1.41,1.03-1.78l13.66-7.78c0.63-0.36,1.41-0.36,2.04,0.01c0.63,0.37,1.02,1.04,1.02,1.77v29.62
				c0,0.74-0.4,1.41-1.03,1.78l-13.66,7.78C329.65,381.59,329.3,381.68,328.95,381.68z M330.99,351.2v24.91l9.56-5.45v-24.91
				L330.99,351.2z M342.61,371.86h0.01H342.61z"/>
		</g>
		<g>
			<path class="st19" d="M356.26,381.68c-0.35,0-0.7-0.09-1.01-0.27l-13.66-7.78c-0.64-0.36-1.03-1.04-1.03-1.78v-29.62
				c0-0.73,0.39-1.4,1.02-1.77c0.63-0.37,1.41-0.37,2.04-0.01l13.66,7.78c0.64,0.36,1.03,1.04,1.03,1.78v29.62
				c0,0.73-0.39,1.4-1.02,1.77C356.98,381.59,356.62,381.68,356.26,381.68z M344.65,370.67l9.56,5.45V351.2l-9.56-5.45V370.67z"/>
		</g>
		<g>
			<path class="st19" d="M356.26,381.68c-0.36,0-0.71-0.09-1.03-0.28c-0.63-0.37-1.02-1.04-1.02-1.77v-29.62
				c0-0.74,0.4-1.41,1.03-1.78l13.66-7.78c0.63-0.36,1.41-0.36,2.04,0.01c0.63,0.37,1.02,1.04,1.02,1.77v29.62
				c0,0.74-0.4,1.41-1.03,1.78l-13.66,7.78C356.97,381.59,356.61,381.68,356.26,381.68z M358.31,351.2v24.91l9.56-5.45v-24.91
				L358.31,351.2z M369.92,371.86h0.01H369.92z"/>
		</g>
	</g>
	<g>
		<ellipse class="st10" cx="60.92" cy="244.52" rx="18.15" ry="18.13"/>
	</g>
	<g>
		<path class="st2" d="M76.32,255.44l5.52,3.79c2.27,1.56,2.57,4.79,0.64,6.74h0c-1.94,1.96-5.19,1.68-6.77-0.59l-3.76-5.42"/>
	</g>
	<g>
		<ellipse class="st20" cx="60.92" cy="244.52" rx="10.13" ry="8.09"/>
	</g>
	<g>
		<g>
			<path class="st19" d="M60.92,264.69c-11.13,0-20.19-9.05-20.19-20.17c0-11.12,9.06-20.17,20.19-20.17s20.19,9.05,20.19,20.17
				C81.11,255.65,72.05,264.69,60.92,264.69z M60.92,228.44c-8.88,0-16.1,7.21-16.1,16.08c0,8.87,7.22,16.08,16.1,16.08
				s16.1-7.21,16.1-16.08C77.02,235.65,69.8,228.44,60.92,228.44z"/>
		</g>
		<g>
			<path class="st19" d="M79.34,269.32c-0.19,0-0.38-0.01-0.57-0.02c-1.92-0.17-3.65-1.17-4.75-2.75l-3.76-5.42
				c-0.64-0.93-0.41-2.2,0.52-2.85c0.93-0.64,2.21-0.41,2.85,0.52l3.76,5.42c0.4,0.58,1.04,0.95,1.74,1.01
				c0.7,0.06,1.39-0.19,1.89-0.69c0.49-0.5,0.74-1.19,0.67-1.89c-0.07-0.7-0.44-1.33-1.01-1.73l-5.52-3.79
				c-0.93-0.64-1.17-1.92-0.53-2.85c0.64-0.93,1.92-1.17,2.85-0.53l5.52,3.79c1.58,1.09,2.59,2.81,2.77,4.72
				c0.18,1.91-0.49,3.79-1.84,5.15C82.71,268.64,81.06,269.32,79.34,269.32z"/>
		</g>
		<g>
			<path class="st19" d="M60.92,254.66c-4.85,0-9.33-3.47-11.99-9.29c-0.25-0.54-0.25-1.16,0-1.7c2.66-5.82,7.14-9.29,11.99-9.29
				s9.33,3.47,11.99,9.29c0.25,0.54,0.25,1.16,0,1.7C70.25,251.19,65.77,254.66,60.92,254.66z M53.07,244.52
				c1.98,3.8,4.87,6.05,7.85,6.05c2.99,0,5.87-2.24,7.85-6.05c-1.98-3.8-4.87-6.05-7.85-6.05
				C57.93,238.48,55.05,240.72,53.07,244.52z"/>
		</g>
		<g>
			<path class="st19" d="M60.92,248.62c-2.26,0-4.1-1.84-4.1-4.1c0-2.26,1.84-4.1,4.1-4.1s4.1,1.84,4.1,4.1
				C65.02,246.78,63.18,248.62,60.92,248.62z M60.92,244.52L60.92,244.52L60.92,244.52z"/>
		</g>
	</g>
	<g>
		<polygon class="st2" points="110.38,110.68 102.25,99.6 112.4,94.9 86.71,75.72 84.51,107.81 93.89,103.47 97.48,116.65 		"/>
	</g>
	<g>
		<path class="st19" d="M97.48,118.7c-0.3,0-0.59-0.06-0.86-0.19c-0.55-0.25-0.95-0.74-1.11-1.32l-2.95-10.85l-7.17,3.32
			c-0.66,0.31-1.43,0.24-2.02-0.17c-0.6-0.41-0.93-1.1-0.88-1.83l2.2-32.09c0.05-0.75,0.51-1.41,1.19-1.72
			c0.68-0.31,1.48-0.23,2.08,0.22l25.69,19.18c0.58,0.43,0.89,1.13,0.81,1.85s-0.52,1.34-1.18,1.64l-7.89,3.65l6.65,9.07
			c0.36,0.49,0.49,1.13,0.33,1.72c-0.15,0.59-0.57,1.09-1.12,1.35l-12.91,5.97C98.06,118.64,97.77,118.7,97.48,118.7z M93.89,101.42
			c0.3,0,0.59,0.06,0.86,0.19c0.55,0.25,0.95,0.74,1.11,1.32l2.95,10.85l8.43-3.9l-6.65-9.07c-0.36-0.49-0.49-1.13-0.33-1.72
			c0.15-0.59,0.57-1.09,1.12-1.35l7.04-3.26L88.5,79.61l-1.7,24.89l6.23-2.88C93.3,101.48,93.59,101.42,93.89,101.42z"/>
	</g>
	<g>
		<ellipse class="st20" cx="169.48" cy="376.8" rx="61.21" ry="61.15"/>
		<path class="st19" d="M169.48,440c-34.88,0-63.26-28.35-63.26-63.2c0-34.85,28.38-63.2,63.26-63.2s63.26,28.35,63.26,63.2
			C232.74,411.65,204.36,440,169.48,440z M169.48,317.69c-32.62,0-59.17,26.51-59.17,59.11s26.54,59.11,59.17,59.11
			s59.17-26.52,59.17-59.11S202.1,317.69,169.48,317.69z"/>
	</g>
	<g>
		<path class="st19" d="M147.67,384.41h2.69c3.07,0,4.89,1.66,4.89,4.97c0,3.33-1.81,5.07-4.79,5.07h-2.78V384.41z M150.23,393.01
			c2.03,0,3.18-1.15,3.18-3.62c0-2.46-1.15-3.53-3.18-3.53h-0.78v7.15H150.23z"/>
		<path class="st19" d="M156.62,390.69c0-2.46,1.71-3.96,3.47-3.96c2.04,0,3.12,1.47,3.12,3.58c0,0.34-0.03,0.68-0.08,0.86h-4.79
			c0.15,1.34,1.01,2.1,2.23,2.1c0.65,0,1.2-0.2,1.75-0.55l0.6,1.11c-0.72,0.48-1.63,0.81-2.58,0.81
			C158.25,394.63,156.62,393.18,156.62,390.69z M161.68,389.97c0-1.17-0.51-1.87-1.54-1.87c-0.89,0-1.66,0.66-1.81,1.87H161.68z"/>
		<path class="st19" d="M164.91,386.91h1.46l0.12,0.8h0.06c0.63-0.54,1.44-0.98,2.27-0.98c1.87,0,2.97,1.51,2.97,3.84
			c0,2.58-1.55,4.07-3.23,4.07c-0.66,0-1.32-0.31-1.94-0.83l0.05,1.26v2.36h-1.77V386.91z M169.96,390.58
			c0-1.51-0.49-2.39-1.63-2.39c-0.55,0-1.08,0.28-1.66,0.84v3.52c0.55,0.46,1.08,0.63,1.52,0.63
			C169.19,393.18,169.96,392.29,169.96,390.58z"/>
		<path class="st19" d="M173.57,392.52v-8.9h1.77v8.99c0,0.43,0.2,0.58,0.38,0.58c0.08,0,0.14,0,0.28-0.03l0.23,1.32
			c-0.22,0.09-0.52,0.15-0.94,0.15C174.03,394.63,173.57,393.82,173.57,392.52z"/>
		<path class="st19" d="M177.25,390.69c0-2.52,1.71-3.96,3.58-3.96c1.89,0,3.6,1.44,3.6,3.96c0,2.5-1.71,3.95-3.6,3.95
			C178.95,394.63,177.25,393.19,177.25,390.69z M182.61,390.69c0-1.52-0.68-2.52-1.78-2.52c-1.11,0-1.77,1-1.77,2.52
			c0,1.5,0.66,2.5,1.77,2.5C181.93,393.19,182.61,392.19,182.61,390.69z"/>
		<path class="st19" d="M185.61,397.4l0.32-1.38c0.14,0.05,0.35,0.11,0.54,0.11c0.8,0,1.26-0.54,1.51-1.29l0.14-0.48l-2.97-7.44h1.8
			l1.31,3.7c0.22,0.66,0.43,1.41,0.66,2.12h0.06c0.18-0.69,0.38-1.44,0.57-2.12l1.14-3.7h1.71l-2.74,7.87
			c-0.63,1.7-1.41,2.76-3.06,2.76C186.17,397.55,185.88,397.49,185.61,397.4z"/>
		<path class="st19" d="M137.52,410.85c0-1.61,1.34-2.46,4.44-2.79c-0.03-0.8-0.35-1.47-1.38-1.47c-0.74,0-1.44,0.34-2.12,0.74
			l-0.65-1.18c0.83-0.52,1.91-0.98,3.1-0.98c1.87,0,2.81,1.15,2.81,3.25v4.47h-1.46l-0.12-0.83h-0.06
			c-0.68,0.57-1.44,1.01-2.34,1.01C138.42,413.05,137.52,412.16,137.52,410.85z M141.96,410.85v-1.69c-2.06,0.26-2.73,0.8-2.73,1.55
			c0,0.68,0.46,0.97,1.09,0.97C140.93,411.67,141.39,411.37,141.96,410.85z"/>
		<path class="st19" d="M145.84,405.33h1.46l0.12,1.01h0.06c0.68-0.66,1.44-1.2,2.47-1.2c1.61,0,2.32,1.09,2.32,2.99v4.73h-1.77
			v-4.5c0-1.24-0.35-1.7-1.18-1.7c-0.66,0-1.09,0.32-1.72,0.94v5.26h-1.77V405.33z"/>
		<path class="st19" d="M153.97,415.82l0.32-1.38c0.14,0.05,0.35,0.11,0.54,0.11c0.8,0,1.26-0.54,1.51-1.29l0.14-0.48l-2.97-7.44
			h1.8l1.31,3.7c0.22,0.66,0.43,1.41,0.66,2.12h0.06c0.18-0.69,0.38-1.44,0.57-2.12l1.14-3.7h1.71l-2.74,7.87
			c-0.63,1.7-1.41,2.76-3.06,2.76C154.54,415.97,154.25,415.91,153.97,415.82z"/>
		<path class="st19" d="M161.3,405.33h1.78l0.91,3.91c0.15,0.72,0.26,1.43,0.4,2.16h0.06c0.14-0.74,0.29-1.46,0.48-2.16l0.98-3.91
			h1.61l1,3.91c0.18,0.72,0.34,1.43,0.51,2.16h0.06c0.14-0.74,0.26-1.44,0.4-2.16l0.91-3.91h1.66l-1.92,7.54h-2.1l-0.88-3.51
			c-0.17-0.71-0.29-1.4-0.46-2.2h-0.06c-0.14,0.8-0.28,1.51-0.45,2.21l-0.86,3.5h-2.03L161.3,405.33z"/>
		<path class="st19" d="M173.55,402.03h1.77v2.79l-0.06,1.46c0.63-0.6,1.38-1.14,2.41-1.14c1.61,0,2.32,1.09,2.32,2.99v4.73h-1.77
			v-4.5c0-1.24-0.35-1.7-1.18-1.7c-0.66,0-1.09,0.32-1.72,0.94v5.26h-1.77V402.03z"/>
		<path class="st19" d="M181.63,409.11c0-2.46,1.71-3.96,3.47-3.96c2.04,0,3.12,1.47,3.12,3.58c0,0.34-0.03,0.68-0.08,0.86h-4.79
			c0.15,1.34,1.01,2.1,2.23,2.1c0.65,0,1.2-0.2,1.75-0.55l0.6,1.11c-0.72,0.48-1.63,0.81-2.58,0.81
			C183.26,413.05,181.63,411.6,181.63,409.11z M186.69,408.39c0-1.17-0.51-1.87-1.54-1.87c-0.89,0-1.66,0.66-1.81,1.87H186.69z"/>
		<path class="st19" d="M189.92,405.33h1.46l0.12,1.34h0.06c0.54-0.98,1.34-1.52,2.14-1.52c0.38,0,0.63,0.05,0.86,0.15l-0.31,1.54
			c-0.26-0.08-0.46-0.12-0.78-0.12c-0.6,0-1.32,0.41-1.78,1.55v4.61h-1.77V405.33z"/>
		<path class="st19" d="M195,409.11c0-2.46,1.71-3.96,3.47-3.96c2.04,0,3.12,1.47,3.12,3.58c0,0.34-0.03,0.68-0.08,0.86h-4.79
			c0.15,1.34,1.01,2.1,2.23,2.1c0.65,0,1.2-0.2,1.75-0.55l0.6,1.11c-0.72,0.48-1.63,0.81-2.58,0.81
			C196.63,413.05,195,411.6,195,409.11z M200.06,408.39c0-1.17-0.51-1.87-1.54-1.87c-0.89,0-1.66,0.66-1.81,1.87H200.06z"/>
	</g>
	<g>
		<g>
			<path class="st2" d="M157.86,368.2v-19.11c0-7.16,3.26-11.34,8.73-15.05c1.74-1.18,4.04-1.18,5.78,0
				c5.47,3.71,8.73,7.9,8.73,15.05v19.11h-22.9"/>
		</g>
		<g>
			<path class="st11" d="M181.62,355.26L181.62,355.26c7.76,0,12.67,10.67-0.52,18.82v-5.89"/>
		</g>
		<g>
			<path class="st11" d="M157.86,368.2l0,5.89c-13.2-8.15-8.29-18.82-0.52-18.82l0,0"/>
		</g>
		<g>
			<ellipse class="st12" cx="169.71" cy="350.68" rx="4.57" ry="4.56"/>
		</g>
	</g>
	<g>
		<g>
			<path class="st19" d="M181.1,370.25h-22.9c-0.06,0-0.11,0-0.17-0.01c-1.16,0.1-2.22-0.85-2.22-2.04v-19.11
				c0-7.16,2.88-12.17,9.63-16.75c2.42-1.64,5.67-1.64,8.08,0c6.75,4.58,9.63,9.59,9.63,16.75v19.11
				C183.15,369.33,182.23,370.25,181.1,370.25z M159.91,366.16h19.15v-17.06c0-5.79-2.2-9.54-7.83-13.36
				c-1.04-0.71-2.44-0.71-3.48,0c-5.64,3.82-7.83,7.57-7.83,13.36V366.16z"/>
		</g>
		<g>
			<path class="st19" d="M181.1,376.13c-0.34,0-0.69-0.09-1-0.26c-0.65-0.36-1.05-1.05-1.05-1.79v-5.89c0-1.13,0.92-2.05,2.05-2.05
				c1.13,0,2.05,0.92,2.05,2.05v1.86c3.27-2.85,4.7-6.01,3.9-8.83c-0.67-2.35-2.85-3.92-5.42-3.92c-1.13,0-2.05-0.92-2.05-2.05
				s0.92-2.05,2.05-2.05c4.43,0,8.19,2.77,9.37,6.9c1.56,5.47-1.74,11.35-8.81,15.71C181.85,376.03,181.47,376.13,181.1,376.13z"/>
		</g>
		<g>
			<path class="st19" d="M157.86,376.13c-0.37,0-0.75-0.1-1.08-0.31c-7.07-4.37-10.37-10.24-8.81-15.71c1.17-4.12,4.94-6.9,9.37-6.9
				c1.13,0,2.05,0.92,2.05,2.05s-0.92,2.05-2.05,2.05c-2.58,0-4.76,1.58-5.42,3.92c-0.8,2.83,0.63,5.99,3.9,8.83v-1.86
				c0-1.13,0.92-2.05,2.05-2.05l0,0c1.13,0,2.05,0.92,2.05,2.05l0,5.89c0,0.74-0.4,1.43-1.05,1.79
				C158.54,376.05,158.2,376.13,157.86,376.13z"/>
		</g>
		<g>
			<path class="st19" d="M169.71,357.29c-3.65,0-6.62-2.97-6.62-6.61s2.97-6.61,6.62-6.61c3.65,0,6.62,2.97,6.62,6.61
				S173.36,357.29,169.71,357.29z M169.71,348.16c-1.39,0-2.52,1.13-2.52,2.52c0,1.39,1.13,2.52,2.52,2.52
				c1.39,0,2.52-1.13,2.52-2.52C172.23,349.29,171.1,348.16,169.71,348.16z"/>
		</g>
	</g>
	<g>
		<ellipse class="st20" cx="417.78" cy="120.56" rx="61.21" ry="61.15"/>
		<path class="st19" d="M417.78,183.76c-34.88,0-63.26-28.35-63.26-63.2s28.38-63.2,63.26-63.2s63.26,28.35,63.26,63.2
			S452.67,183.76,417.78,183.76z M417.78,61.45c-32.62,0-59.17,26.51-59.17,59.11s26.54,59.11,59.17,59.11s59.17-26.51,59.17-59.11
			S450.41,61.45,417.78,61.45z"/>
	</g>
	<g>
		<path class="st19" d="M389.73,139.67h2.09l3.27,10.04h-1.87l-0.78-2.72h-3.38l-0.78,2.72h-1.81L389.73,139.67z M389.47,145.6h2.57
			l-0.35-1.23c-0.32-1.06-0.61-2.21-0.91-3.32h-0.06c-0.28,1.12-0.57,2.26-0.89,3.32L389.47,145.6z"/>
		<path class="st19" d="M396.05,146.9v-4.73h1.77v4.5c0,1.24,0.35,1.7,1.17,1.7c0.66,0,1.11-0.31,1.68-1.04v-5.16h1.77v7.54h-1.44
			l-0.14-1.11h-0.05c-0.66,0.78-1.4,1.29-2.43,1.29C396.75,149.9,396.05,148.81,396.05,146.9z"/>
		<path class="st19" d="M404.93,147.16v-3.59h-1.08v-1.32l1.17-0.08l0.22-2.06h1.47v2.06h1.92v1.4h-1.92v3.59
			c0,0.89,0.34,1.32,1.06,1.32c0.26,0,0.57-0.08,0.78-0.17l0.31,1.3c-0.42,0.14-0.94,0.28-1.54,0.28
			C405.57,149.9,404.93,148.79,404.93,147.16z"/>
		<path class="st19" d="M409.48,145.95c0-2.52,1.71-3.96,3.58-3.96c1.89,0,3.6,1.44,3.6,3.96c0,2.5-1.71,3.95-3.6,3.95
			C411.18,149.9,409.48,148.45,409.48,145.95z M414.84,145.95c0-1.52-0.68-2.52-1.78-2.52c-1.11,0-1.77,1-1.77,2.52
			c0,1.5,0.66,2.5,1.77,2.5C414.16,148.45,414.84,147.45,414.84,145.95z"/>
		<path class="st19" d="M420.73,148.85l0.83-1.14c0.68,0.52,1.32,0.84,2.09,0.84c0.81,0,1.2-0.38,1.2-0.91
			c0-0.63-0.81-0.91-1.61-1.21c-1-0.37-2.12-0.94-2.12-2.2c0-1.32,1.06-2.26,2.75-2.26c1.04,0,1.89,0.43,2.51,0.91l-0.82,1.07
			c-0.52-0.38-1.06-0.64-1.66-0.64c-0.75,0-1.11,0.35-1.11,0.83c0,0.6,0.75,0.83,1.57,1.12c1.03,0.38,2.17,0.87,2.17,2.29
			c0,1.29-1.03,2.33-2.94,2.33C422.55,149.9,421.46,149.45,420.73,148.85z"/>
		<path class="st19" d="M428.05,147.16v-3.59h-1.08v-1.32l1.17-0.08l0.22-2.06h1.47v2.06h1.92v1.4h-1.92v3.59
			c0,0.89,0.34,1.32,1.06,1.32c0.26,0,0.57-0.08,0.78-0.17l0.31,1.3c-0.41,0.14-0.94,0.28-1.54,0.28
			C428.7,149.9,428.05,148.79,428.05,147.16z"/>
		<path class="st19" d="M432.6,145.95c0-2.52,1.71-3.96,3.58-3.96c1.89,0,3.6,1.44,3.6,3.96c0,2.5-1.71,3.95-3.6,3.95
			C434.31,149.9,432.6,148.45,432.6,145.95z M437.97,145.95c0-1.52-0.68-2.52-1.78-2.52c-1.11,0-1.77,1-1.77,2.52
			c0,1.5,0.66,2.5,1.77,2.5C437.29,148.45,437.97,147.45,437.97,145.95z"/>
		<path class="st19" d="M441.53,142.17h1.46l0.12,0.8h0.06c0.63-0.54,1.44-0.98,2.27-0.98c1.87,0,2.97,1.5,2.97,3.84
			c0,2.58-1.55,4.07-3.23,4.07c-0.66,0-1.32-0.31-1.94-0.83l0.05,1.26v2.36h-1.77V142.17z M446.59,145.84c0-1.5-0.49-2.39-1.63-2.39
			c-0.55,0-1.08,0.28-1.66,0.84v3.52c0.55,0.46,1.08,0.63,1.52,0.63C445.82,148.44,446.59,147.55,446.59,145.84z"/>
	</g>
	<g>
		<g>
			<path class="st10" d="M417.78,84.23c-11.32,0-20.49,9.16-20.49,20.47c0,11.3,9.17,20.47,20.49,20.47
				c11.32,0,20.49-9.16,20.49-20.47C438.27,93.39,429.1,84.23,417.78,84.23z M417.78,117.36c-7,0-12.68-5.67-12.68-12.66
				c0-6.99,5.68-12.66,12.68-12.66c7,0,12.68,5.67,12.68,12.66C430.46,111.69,424.78,117.36,417.78,117.36z"/>
		</g>
		<g>
			<path class="st19" d="M417.78,127.21c-12.43,0-22.54-10.1-22.54-22.51s10.11-22.51,22.54-22.51s22.54,10.1,22.54,22.51
				S430.21,127.21,417.78,127.21z M417.78,86.27c-10.17,0-18.44,8.26-18.44,18.42s8.27,18.42,18.44,18.42s18.44-8.26,18.44-18.42
				S427.95,86.27,417.78,86.27z"/>
		</g>
		<g>
			<path class="st19" d="M417.78,119.4c-8.12,0-14.72-6.6-14.72-14.71s6.6-14.71,14.72-14.71s14.73,6.6,14.73,14.71
				S425.9,119.4,417.78,119.4z M417.78,94.08c-5.86,0-10.63,4.76-10.63,10.62c0,5.85,4.77,10.62,10.63,10.62
				c5.86,0,10.63-4.76,10.63-10.62C428.41,98.84,423.64,94.08,417.78,94.08z"/>
		</g>
		<g>
			<line class="st20" x1="410.65" y1="97.57" x2="426.74" y2="113.65"/>
			<path class="st19" d="M426.74,115.69c-0.52,0-1.05-0.2-1.45-0.6L409.2,99.02c-0.8-0.8-0.8-2.1,0-2.89c0.8-0.8,2.1-0.8,2.9,0
				l16.09,16.08c0.8,0.8,0.8,2.1,0,2.89C427.79,115.49,427.27,115.69,426.74,115.69z"/>
		</g>
	</g>
</g>
</svg>
